"CriteriaId","CriteriaName","ShortName","Points","RequirementType","DefaultValue","DefaultShown","DefaultSort","DisplaySequence"
2,"TrustNet 1 month ppp","1m",1,">","",1,0,10
3,"TrustNet 3 month ppp","3m",2,">","",1,0,20
4,"TrustNet 6 month ppp","6m",3,">","",1,0,30
5,"TrustNet 1 year ppp","1y",2,">","",1,0,40
6,"TrustNet 3 year ppp","3y",1,">","",1,0,50
7,"TrustNet 5 year ppp","5y",1,">","",0,0,60
8,"TrustNet 1 year Volatily","1y volatiliy",-50,"<","",0,1,71
9,"TrustNet 1 year Sharpe","1y sharpe",50,">","",0,0,73
10,"TrustNet 1 year Alpha","1y alpha",1,">","",0,0,75
12,"TrustNet 1 year Beta","1y beta",1,">","",0,0,77
13,"TrustNet 1 year Info","1y info",1,">","",0,0,79
14,"TrustNet 1 year R-Squared","1y r-sqrd",1,">","",0,0,80
15,"TrustNet Investment Trust Discount","Discount",1,"<","",0,1,9
16,"TrustNet Sector","Sector",1,"=","",0,0,82
17,"TrustNet Region","Region",1,"=","",0,0,83
18,"TrustNet 1 month NAV ppp","1m nav",1,">","",0,0,61
19,"TrustNet 3 month NAV ppp","3m nav",1,">","",0,0,62
20,"TrustNet 6 month NAV ppp","6m nav",1,">","",0,0,63
21,"TrustNet 1 year NAV ppp","1y nav",1,">","",0,0,64
22,"TrustNet 3 year NAV ppp","3y nav",1,">","",0,0,65
23,"TrustNet 5 year NAV ppp","5y nav",1,">","",0,0,66
25,"Citywire Manager Rating","CW mgr",30,">","",0,0,220
26,"H-L Wealth 150","HL 150",50,">","",0,0,230
27,"TrustNet RiskGrade","RiskGrade",0,"<","",0,1,9.5
28,"TrustNet 3 year Volatily","3y volatiliy",-50,"<","",0,1,72
29,"TrustNet 3 year Sharpe","3y sharpe",50,">","",0,0,74
30,"TrustNet 3 year Alpha","3y alpha",1,">","",0,0,76
31,"TrustNet 3 year Beta","3y beta",1,">","",0,0,78
32,"TrustNet 3 year Info","3y info",1,">","",0,0,79.5
33,"TrustNet 3 year R-Squared","3y r-sqrd",1,">","",0,0,81
34,"TrustNet AFI Aggressive","AFI agg",50,">","",0,0,101
35,"TrustNet AFI Balanced","AFI bal",50,">","",0,0,102
36,"TrustNet AFI Cautious","AFI caut",50,">","",0,0,103
38,"TrustNet IMA Sector","IMA Sector",1,"=","",0,0,84
39,"TrustNet AIC Sector","AIC Sector",1,"=","",0,0,85
42,"TrustNet 2 year ppp","2y",1,">","",1,0,45
44,"TrustNet 10 year ppp","10y",1,">","",0,0,60.049999999999997
45,"TrustNet Yield","Yield",1,">","",0,0,81.099999999999994
46,"TrustNet S&P Rating","S&P",1,">","",0,0,81.200000000000003
47,"TrustNet OBSR Rating","OBRS",1,">","",0,0,81.299999999999997
49,"TrustNet FE Crown Rating","FE Crown",1,">","",0,0,81.400000000000006
54,"TrustNet 12 months to 24 months","12m to 24m",1,">","",0,0,60.100000000000001
57,"TrustNet 24 months to 36 months","24m to 36m",1,">","",0,0,60.200000000000003
58,"TrustNet 36 months to 48 months","36m to 48m",1,">","",0,0,60.299999999999997
59,"TrustNet 48 months to 60 months","48m to 60m",1,">","",0,0,60.399999999999999
